^C:\USERS\SHINYA\DESKTOP\BASECROSS-MASTER\SIMPLSAMPLE015\BASECROSSDX11\STDAFX.CPP
C:\USERS\SHINYA\DESKTOP\BASECROSS-MASTER\SIMPLSAMPLE015\TEMP\DX11\RELEASE\BASECROSSDX11.PCH
C:\USERS\SHINYA\DESKTOP\BASECROSS-MASTER\SIMPLSAMPLE015\TEMP\DX11\RELEASE\VC140.PDB
C:\USERS\SHINYA\DESKTOP\BASECROSS-MASTER\SIMPLSAMPLE015\TEMP\DX11\RELEASE\STDAFX.OBJ
^C:\USERS\SHINYA\DESKTOP\BASECROSS-MASTER\LIBS\BASELIB\DX11LIB\DEVICERESOURCES.CPP|C:\USERS\SHINYA\DESKTOP\BASECROSS-MASTER\LIBS\BASELIB\DX11LIB\VERTEXHELPER.CPP|C:\USERS\SHINYA\DESKTOP\BASECROSS-MASTER\LIBS\BASELIB\DXLIB\APP.CPP|C:\USERS\SHINYA\DESKTOP\BASECROSS-MASTER\LIBS\BASELIB\DXLIB\BASEHELPER.CPP|C:\USERS\SHINYA\DESKTOP\BASECROSS-MASTER\LIBS\BASELIB\DXLIB\MESHHELPER.CPP|C:\USERS\SHINYA\DESKTOP\BASECROSS-MASTER\LIBS\BASELIB\DXLIB\XMLDOC.CPP|C:\USERS\SHINYA\DESKTOP\BASECROSS-MASTER\SIMPLSAMPLE015\BASECROSSDX11\CHARACTER.CPP|C:\USERS\SHINYA\DESKTOP\BASECROSS-MASTER\SIMPLSAMPLE015\BASECROSSDX11\COMMON\ACTION.CPP|C:\USERS\SHINYA\DESKTOP\BASECROSS-MASTER\SIMPLSAMPLE015\BASECROSSDX11\COMMON\COLLISION.CPP|C:\USERS\SHINYA\DESKTOP\BASECROSS-MASTER\SIMPLSAMPLE015\BASECROSSDX11\COMMON\COMPONENTS.CPP|C:\USERS\SHINYA\DESKTOP\BASECROSS-MASTER\SIMPLSAMPLE015\BASECROSSDX11\COMMON\DRAWCOMPONENTS.CPP|C:\USERS\SHINYA\DESKTOP\BASECROSS-MASTER\SIMPLSAMPLE015\BASECROSSDX11\COMMON\GAMEOBJECT.CPP|C:\USERS\SHINYA\DESKTOP\BASECROSS-MASTER\SIMPLSAMPLE015\BASECROSSDX11\COMMON\GRAVITY.CPP|C:\USERS\SHINYA\DESKTOP\BASECROSS-MASTER\SIMPLSAMPLE015\BASECROSSDX11\COMMON\RIGIDBODY.CPP|C:\USERS\SHINYA\DESKTOP\BASECROSS-MASTER\SIMPLSAMPLE015\BASECROSSDX11\COMMON\SHAREDRESOURCES.CPP|C:\USERS\SHINYA\DESKTOP\BASECROSS-MASTER\SIMPLSAMPLE015\BASECROSSDX11\COMMON\STRINGCOMPONENTS.CPP|C:\USERS\SHINYA\DESKTOP\BASECROSS-MASTER\SIMPLSAMPLE015\BASECROSSDX11\GAMESTAGE.CPP|C:\USERS\SHINYA\DESKTOP\BASECROSS-MASTER\SIMPLSAMPLE015\BASECROSSDX11\PLAYER.CPP|C:\USERS\SHINYA\DESKTOP\BASECROSS-MASTER\SIMPLSAMPLE015\BASECROSSDX11\PROJECTSHADER.CPP|C:\USERS\SHINYA\DESKTOP\BASECROSS-MASTER\SIMPLSAMPLE015\BASECROSSDX11\SCENE.CPP|C:\USERS\SHINYA\DESKTOP\BASECROSS-MASTER\SIMPLSAMPLE015\BASECROSSDX11\WINMAIN.CPP
C:\USERS\SHINYA\DESKTOP\BASECROSS-MASTER\SIMPLSAMPLE015\TEMP\DX11\RELEASE\VC140.PDB
C:\USERS\SHINYA\DESKTOP\BASECROSS-MASTER\SIMPLSAMPLE015\TEMP\DX11\RELEASE\SCENE.OBJ
C:\USERS\SHINYA\DESKTOP\BASECROSS-MASTER\SIMPLSAMPLE015\TEMP\DX11\RELEASE\PROJECTSHADER.OBJ
C:\USERS\SHINYA\DESKTOP\BASECROSS-MASTER\SIMPLSAMPLE015\TEMP\DX11\RELEASE\PLAYER.OBJ
C:\USERS\SHINYA\DESKTOP\BASECROSS-MASTER\SIMPLSAMPLE015\TEMP\DX11\RELEASE\GAMESTAGE.OBJ
C:\USERS\SHINYA\DESKTOP\BASECROSS-MASTER\SIMPLSAMPLE015\TEMP\DX11\RELEASE\STRINGCOMPONENTS.OBJ
C:\USERS\SHINYA\DESKTOP\BASECROSS-MASTER\SIMPLSAMPLE015\TEMP\DX11\RELEASE\SHAREDRESOURCES.OBJ
C:\USERS\SHINYA\DESKTOP\BASECROSS-MASTER\SIMPLSAMPLE015\TEMP\DX11\RELEASE\RIGIDBODY.OBJ
C:\USERS\SHINYA\DESKTOP\BASECROSS-MASTER\SIMPLSAMPLE015\TEMP\DX11\RELEASE\GRAVITY.OBJ
C:\USERS\SHINYA\DESKTOP\BASECROSS-MASTER\SIMPLSAMPLE015\TEMP\DX11\RELEASE\GAMEOBJECT.OBJ
C:\USERS\SHINYA\DESKTOP\BASECROSS-MASTER\SIMPLSAMPLE015\TEMP\DX11\RELEASE\DRAWCOMPONENTS.OBJ
C:\USERS\SHINYA\DESKTOP\BASECROSS-MASTER\SIMPLSAMPLE015\TEMP\DX11\RELEASE\COMPONENTS.OBJ
C:\USERS\SHINYA\DESKTOP\BASECROSS-MASTER\SIMPLSAMPLE015\TEMP\DX11\RELEASE\COLLISION.OBJ
C:\USERS\SHINYA\DESKTOP\BASECROSS-MASTER\SIMPLSAMPLE015\TEMP\DX11\RELEASE\ACTION.OBJ
C:\USERS\SHINYA\DESKTOP\BASECROSS-MASTER\SIMPLSAMPLE015\TEMP\DX11\RELEASE\CHARACTER.OBJ
C:\USERS\SHINYA\DESKTOP\BASECROSS-MASTER\SIMPLSAMPLE015\TEMP\DX11\RELEASE\XMLDOC.OBJ
C:\USERS\SHINYA\DESKTOP\BASECROSS-MASTER\SIMPLSAMPLE015\TEMP\DX11\RELEASE\MESHHELPER.OBJ
C:\USERS\SHINYA\DESKTOP\BASECROSS-MASTER\SIMPLSAMPLE015\TEMP\DX11\RELEASE\BASEHELPER.OBJ
C:\USERS\SHINYA\DESKTOP\BASECROSS-MASTER\SIMPLSAMPLE015\TEMP\DX11\RELEASE\APP.OBJ
C:\USERS\SHINYA\DESKTOP\BASECROSS-MASTER\SIMPLSAMPLE015\TEMP\DX11\RELEASE\VERTEXHELPER.OBJ
C:\USERS\SHINYA\DESKTOP\BASECROSS-MASTER\SIMPLSAMPLE015\TEMP\DX11\RELEASE\DEVICERESOURCES.OBJ
C:\USERS\SHINYA\DESKTOP\BASECROSS-MASTER\SIMPLSAMPLE015\TEMP\DX11\RELEASE\WINMAIN.OBJ
^C:\USERS\SHINYA\DESKTOP\BASECROSS-MASTER\LIBS\BASELIB\DX11LIB\DEVICERESOURCES.CPP
C:\USERS\SHINYA\DESKTOP\BASECROSS-MASTER\SIMPLSAMPLE015\TEMP\DX11\RELEASE\VC140.PDB
^C:\USERS\SHINYA\DESKTOP\BASECROSS-MASTER\LIBS\BASELIB\DX11LIB\VERTEXHELPER.CPP
C:\USERS\SHINYA\DESKTOP\BASECROSS-MASTER\SIMPLSAMPLE015\TEMP\DX11\RELEASE\VC140.PDB
^C:\USERS\SHINYA\DESKTOP\BASECROSS-MASTER\LIBS\BASELIB\DXLIB\APP.CPP
C:\USERS\SHINYA\DESKTOP\BASECROSS-MASTER\SIMPLSAMPLE015\TEMP\DX11\RELEASE\VC140.PDB
^C:\USERS\SHINYA\DESKTOP\BASECROSS-MASTER\LIBS\BASELIB\DXLIB\BASEHELPER.CPP
C:\USERS\SHINYA\DESKTOP\BASECROSS-MASTER\SIMPLSAMPLE015\TEMP\DX11\RELEASE\VC140.PDB
^C:\USERS\SHINYA\DESKTOP\BASECROSS-MASTER\LIBS\BASELIB\DXLIB\MESHHELPER.CPP
C:\USERS\SHINYA\DESKTOP\BASECROSS-MASTER\SIMPLSAMPLE015\TEMP\DX11\RELEASE\VC140.PDB
^C:\USERS\SHINYA\DESKTOP\BASECROSS-MASTER\LIBS\BASELIB\DXLIB\XMLDOC.CPP
C:\USERS\SHINYA\DESKTOP\BASECROSS-MASTER\SIMPLSAMPLE015\TEMP\DX11\RELEASE\VC140.PDB
^C:\USERS\SHINYA\DESKTOP\BASECROSS-MASTER\SIMPLSAMPLE015\BASECROSSDX11\CHARACTER.CPP
C:\USERS\SHINYA\DESKTOP\BASECROSS-MASTER\SIMPLSAMPLE015\TEMP\DX11\RELEASE\VC140.PDB
^C:\USERS\SHINYA\DESKTOP\BASECROSS-MASTER\SIMPLSAMPLE015\BASECROSSDX11\COMMON\ACTION.CPP
C:\USERS\SHINYA\DESKTOP\BASECROSS-MASTER\SIMPLSAMPLE015\TEMP\DX11\RELEASE\VC140.PDB
^C:\USERS\SHINYA\DESKTOP\BASECROSS-MASTER\SIMPLSAMPLE015\BASECROSSDX11\COMMON\COLLISION.CPP
C:\USERS\SHINYA\DESKTOP\BASECROSS-MASTER\SIMPLSAMPLE015\TEMP\DX11\RELEASE\VC140.PDB
^C:\USERS\SHINYA\DESKTOP\BASECROSS-MASTER\SIMPLSAMPLE015\BASECROSSDX11\COMMON\COMPONENTS.CPP
C:\USERS\SHINYA\DESKTOP\BASECROSS-MASTER\SIMPLSAMPLE015\TEMP\DX11\RELEASE\VC140.PDB
^C:\USERS\SHINYA\DESKTOP\BASECROSS-MASTER\SIMPLSAMPLE015\BASECROSSDX11\COMMON\DRAWCOMPONENTS.CPP
C:\USERS\SHINYA\DESKTOP\BASECROSS-MASTER\SIMPLSAMPLE015\TEMP\DX11\RELEASE\VC140.PDB
^C:\USERS\SHINYA\DESKTOP\BASECROSS-MASTER\SIMPLSAMPLE015\BASECROSSDX11\COMMON\GAMEOBJECT.CPP
C:\USERS\SHINYA\DESKTOP\BASECROSS-MASTER\SIMPLSAMPLE015\TEMP\DX11\RELEASE\VC140.PDB
^C:\USERS\SHINYA\DESKTOP\BASECROSS-MASTER\SIMPLSAMPLE015\BASECROSSDX11\COMMON\GRAVITY.CPP
C:\USERS\SHINYA\DESKTOP\BASECROSS-MASTER\SIMPLSAMPLE015\TEMP\DX11\RELEASE\VC140.PDB
^C:\USERS\SHINYA\DESKTOP\BASECROSS-MASTER\SIMPLSAMPLE015\BASECROSSDX11\COMMON\RIGIDBODY.CPP
C:\USERS\SHINYA\DESKTOP\BASECROSS-MASTER\SIMPLSAMPLE015\TEMP\DX11\RELEASE\VC140.PDB
^C:\USERS\SHINYA\DESKTOP\BASECROSS-MASTER\SIMPLSAMPLE015\BASECROSSDX11\COMMON\SHAREDRESOURCES.CPP
C:\USERS\SHINYA\DESKTOP\BASECROSS-MASTER\SIMPLSAMPLE015\TEMP\DX11\RELEASE\VC140.PDB
^C:\USERS\SHINYA\DESKTOP\BASECROSS-MASTER\SIMPLSAMPLE015\BASECROSSDX11\COMMON\STRINGCOMPONENTS.CPP
C:\USERS\SHINYA\DESKTOP\BASECROSS-MASTER\SIMPLSAMPLE015\TEMP\DX11\RELEASE\VC140.PDB
^C:\USERS\SHINYA\DESKTOP\BASECROSS-MASTER\SIMPLSAMPLE015\BASECROSSDX11\GAMESTAGE.CPP
C:\USERS\SHINYA\DESKTOP\BASECROSS-MASTER\SIMPLSAMPLE015\TEMP\DX11\RELEASE\VC140.PDB
^C:\USERS\SHINYA\DESKTOP\BASECROSS-MASTER\SIMPLSAMPLE015\BASECROSSDX11\PLAYER.CPP
C:\USERS\SHINYA\DESKTOP\BASECROSS-MASTER\SIMPLSAMPLE015\TEMP\DX11\RELEASE\VC140.PDB
^C:\USERS\SHINYA\DESKTOP\BASECROSS-MASTER\SIMPLSAMPLE015\BASECROSSDX11\PROJECTSHADER.CPP
C:\USERS\SHINYA\DESKTOP\BASECROSS-MASTER\SIMPLSAMPLE015\TEMP\DX11\RELEASE\VC140.PDB
^C:\USERS\SHINYA\DESKTOP\BASECROSS-MASTER\SIMPLSAMPLE015\BASECROSSDX11\SCENE.CPP
C:\USERS\SHINYA\DESKTOP\BASECROSS-MASTER\SIMPLSAMPLE015\TEMP\DX11\RELEASE\VC140.PDB
^C:\USERS\SHINYA\DESKTOP\BASECROSS-MASTER\SIMPLSAMPLE015\BASECROSSDX11\WINMAIN.CPP
C:\USERS\SHINYA\DESKTOP\BASECROSS-MASTER\SIMPLSAMPLE015\TEMP\DX11\RELEASE\VC140.PDB
