^C:\USERS\SHINYA\DOCUMENTS\LIBS\DIRECTXTEX\DIRECTXTEXUTIL.CPP
/c /ZI /nologo /W4 /WX- /Od /Oi /Oy- /D _UNICODE /D UNICODE /D WIN32 /D _DEBUG /D _LIB /D _WIN7_PLATFORM_UPDATE /D _WIN32_WINNT=0x0600 /D _CRT_STDIO_ARBITRARY_WIDE_SPECIFIERS /D _UNICODE /D UNICODE /Gm- /EHsc /RTC1 /MTd /GS /arch:SSE2 /fp:fast /Zc:wchar_t /Zc:forScope /Zc:inline /openmp /Yc"DirectXTexP.h" /Fp"C:\USERS\SHINYA\DOCUMENTS\PICGAME\TEMP\DIRECTXTX\DX11\DEBUG\DIRECTXTEX.PCH" /Fo"C:\USERS\SHINYA\DOCUMENTS\PICGAME\TEMP\DIRECTXTX\DX11\DEBUG\\" /Fd"C:\USERS\SHINYA\DOCUMENTS\PICGAME\TEMP\DIRECTXTX\DX11\DEBUG\DIRECTXTEX.PDB" /Gd /TP /analyze-   C:\USERS\SHINYA\DOCUMENTS\LIBS\DIRECTXTEX\DIRECTXTEXUTIL.CPP
^C:\USERS\SHINYA\DOCUMENTS\LIBS\DIRECTXTEX\BC.CPP
/c /ZI /nologo /W4 /WX- /Od /Oi /Oy- /D _UNICODE /D UNICODE /D WIN32 /D _DEBUG /D _LIB /D _WIN7_PLATFORM_UPDATE /D _WIN32_WINNT=0x0600 /D _CRT_STDIO_ARBITRARY_WIDE_SPECIFIERS /D _UNICODE /D UNICODE /Gm- /EHsc /RTC1 /MTd /GS /arch:SSE2 /fp:fast /Zc:wchar_t /Zc:forScope /Zc:inline /openmp /Yu"DirectXTexP.h" /Fp"C:\USERS\SHINYA\DOCUMENTS\PICGAME\TEMP\DIRECTXTX\DX11\DEBUG\DIRECTXTEX.PCH" /Fo"C:\USERS\SHINYA\DOCUMENTS\PICGAME\TEMP\DIRECTXTX\DX11\DEBUG\\" /Fd"C:\USERS\SHINYA\DOCUMENTS\PICGAME\TEMP\DIRECTXTX\DX11\DEBUG\DIRECTXTEX.PDB" /Gd /TP /analyze-   C:\USERS\SHINYA\DOCUMENTS\LIBS\DIRECTXTEX\BC.CPP
^C:\USERS\SHINYA\DOCUMENTS\LIBS\DIRECTXTEX\BC4BC5.CPP
/c /ZI /nologo /W4 /WX- /Od /Oi /Oy- /D _UNICODE /D UNICODE /D WIN32 /D _DEBUG /D _LIB /D _WIN7_PLATFORM_UPDATE /D _WIN32_WINNT=0x0600 /D _CRT_STDIO_ARBITRARY_WIDE_SPECIFIERS /D _UNICODE /D UNICODE /Gm- /EHsc /RTC1 /MTd /GS /arch:SSE2 /fp:fast /Zc:wchar_t /Zc:forScope /Zc:inline /openmp /Yu"DirectXTexP.h" /Fp"C:\USERS\SHINYA\DOCUMENTS\PICGAME\TEMP\DIRECTXTX\DX11\DEBUG\DIRECTXTEX.PCH" /Fo"C:\USERS\SHINYA\DOCUMENTS\PICGAME\TEMP\DIRECTXTX\DX11\DEBUG\\" /Fd"C:\USERS\SHINYA\DOCUMENTS\PICGAME\TEMP\DIRECTXTX\DX11\DEBUG\DIRECTXTEX.PDB" /Gd /TP /analyze-   C:\USERS\SHINYA\DOCUMENTS\LIBS\DIRECTXTEX\BC4BC5.CPP
^C:\USERS\SHINYA\DOCUMENTS\LIBS\DIRECTXTEX\BC6HBC7.CPP
/c /ZI /nologo /W4 /WX- /Od /Oi /Oy- /D _UNICODE /D UNICODE /D WIN32 /D _DEBUG /D _LIB /D _WIN7_PLATFORM_UPDATE /D _WIN32_WINNT=0x0600 /D _CRT_STDIO_ARBITRARY_WIDE_SPECIFIERS /D _UNICODE /D UNICODE /Gm- /EHsc /RTC1 /MTd /GS /arch:SSE2 /fp:fast /Zc:wchar_t /Zc:forScope /Zc:inline /openmp /Yu"DirectXTexP.h" /Fp"C:\USERS\SHINYA\DOCUMENTS\PICGAME\TEMP\DIRECTXTX\DX11\DEBUG\DIRECTXTEX.PCH" /Fo"C:\USERS\SHINYA\DOCUMENTS\PICGAME\TEMP\DIRECTXTX\DX11\DEBUG\\" /Fd"C:\USERS\SHINYA\DOCUMENTS\PICGAME\TEMP\DIRECTXTX\DX11\DEBUG\DIRECTXTEX.PDB" /Gd /TP /analyze-   C:\USERS\SHINYA\DOCUMENTS\LIBS\DIRECTXTEX\BC6HBC7.CPP
^C:\USERS\SHINYA\DOCUMENTS\LIBS\DIRECTXTEX\BCDIRECTCOMPUTE.CPP
/c /ZI /nologo /W4 /WX- /Od /Oi /Oy- /D _UNICODE /D UNICODE /D WIN32 /D _DEBUG /D _LIB /D _WIN7_PLATFORM_UPDATE /D _WIN32_WINNT=0x0600 /D _CRT_STDIO_ARBITRARY_WIDE_SPECIFIERS /D _UNICODE /D UNICODE /Gm- /EHsc /RTC1 /MTd /GS /arch:SSE2 /fp:fast /Zc:wchar_t /Zc:forScope /Zc:inline /openmp /Yu"DirectXTexP.h" /Fp"C:\USERS\SHINYA\DOCUMENTS\PICGAME\TEMP\DIRECTXTX\DX11\DEBUG\DIRECTXTEX.PCH" /Fo"C:\USERS\SHINYA\DOCUMENTS\PICGAME\TEMP\DIRECTXTX\DX11\DEBUG\\" /Fd"C:\USERS\SHINYA\DOCUMENTS\PICGAME\TEMP\DIRECTXTX\DX11\DEBUG\DIRECTXTEX.PDB" /Gd /TP /analyze-   C:\USERS\SHINYA\DOCUMENTS\LIBS\DIRECTXTEX\BCDIRECTCOMPUTE.CPP
^C:\USERS\SHINYA\DOCUMENTS\LIBS\DIRECTXTEX\DIRECTXTEXCOMPRESS.CPP
/c /ZI /nologo /W4 /WX- /Od /Oi /Oy- /D _UNICODE /D UNICODE /D WIN32 /D _DEBUG /D _LIB /D _WIN7_PLATFORM_UPDATE /D _WIN32_WINNT=0x0600 /D _CRT_STDIO_ARBITRARY_WIDE_SPECIFIERS /D _UNICODE /D UNICODE /Gm- /EHsc /RTC1 /MTd /GS /arch:SSE2 /fp:fast /Zc:wchar_t /Zc:forScope /Zc:inline /openmp /Yu"DirectXTexP.h" /Fp"C:\USERS\SHINYA\DOCUMENTS\PICGAME\TEMP\DIRECTXTX\DX11\DEBUG\DIRECTXTEX.PCH" /Fo"C:\USERS\SHINYA\DOCUMENTS\PICGAME\TEMP\DIRECTXTX\DX11\DEBUG\\" /Fd"C:\USERS\SHINYA\DOCUMENTS\PICGAME\TEMP\DIRECTXTX\DX11\DEBUG\DIRECTXTEX.PDB" /Gd /TP /analyze-   C:\USERS\SHINYA\DOCUMENTS\LIBS\DIRECTXTEX\DIRECTXTEXCOMPRESS.CPP
^C:\USERS\SHINYA\DOCUMENTS\LIBS\DIRECTXTEX\DIRECTXTEXCOMPRESSGPU.CPP
/c /ZI /nologo /W4 /WX- /Od /Oi /Oy- /D _UNICODE /D UNICODE /D WIN32 /D _DEBUG /D _LIB /D _WIN7_PLATFORM_UPDATE /D _WIN32_WINNT=0x0600 /D _CRT_STDIO_ARBITRARY_WIDE_SPECIFIERS /D _UNICODE /D UNICODE /Gm- /EHsc /RTC1 /MTd /GS /arch:SSE2 /fp:fast /Zc:wchar_t /Zc:forScope /Zc:inline /openmp /Yu"DirectXTexP.h" /Fp"C:\USERS\SHINYA\DOCUMENTS\PICGAME\TEMP\DIRECTXTX\DX11\DEBUG\DIRECTXTEX.PCH" /Fo"C:\USERS\SHINYA\DOCUMENTS\PICGAME\TEMP\DIRECTXTX\DX11\DEBUG\\" /Fd"C:\USERS\SHINYA\DOCUMENTS\PICGAME\TEMP\DIRECTXTX\DX11\DEBUG\DIRECTXTEX.PDB" /Gd /TP /analyze-   C:\USERS\SHINYA\DOCUMENTS\LIBS\DIRECTXTEX\DIRECTXTEXCOMPRESSGPU.CPP
^C:\USERS\SHINYA\DOCUMENTS\LIBS\DIRECTXTEX\DIRECTXTEXCONVERT.CPP
/c /ZI /nologo /W4 /WX- /Od /Oi /Oy- /D _UNICODE /D UNICODE /D WIN32 /D _DEBUG /D _LIB /D _WIN7_PLATFORM_UPDATE /D _WIN32_WINNT=0x0600 /D _CRT_STDIO_ARBITRARY_WIDE_SPECIFIERS /D _UNICODE /D UNICODE /Gm- /EHsc /RTC1 /MTd /GS /arch:SSE2 /fp:fast /Zc:wchar_t /Zc:forScope /Zc:inline /openmp /Yu"DirectXTexP.h" /Fp"C:\USERS\SHINYA\DOCUMENTS\PICGAME\TEMP\DIRECTXTX\DX11\DEBUG\DIRECTXTEX.PCH" /Fo"C:\USERS\SHINYA\DOCUMENTS\PICGAME\TEMP\DIRECTXTX\DX11\DEBUG\\" /Fd"C:\USERS\SHINYA\DOCUMENTS\PICGAME\TEMP\DIRECTXTX\DX11\DEBUG\DIRECTXTEX.PDB" /Gd /TP /analyze-   C:\USERS\SHINYA\DOCUMENTS\LIBS\DIRECTXTEX\DIRECTXTEXCONVERT.CPP
^C:\USERS\SHINYA\DOCUMENTS\LIBS\DIRECTXTEX\DIRECTXTEXD3D11.CPP
/c /ZI /nologo /W4 /WX- /Od /Oi /Oy- /D _UNICODE /D UNICODE /D WIN32 /D _DEBUG /D _LIB /D _WIN7_PLATFORM_UPDATE /D _WIN32_WINNT=0x0600 /D _CRT_STDIO_ARBITRARY_WIDE_SPECIFIERS /D _UNICODE /D UNICODE /Gm- /EHsc /RTC1 /MTd /GS /arch:SSE2 /fp:fast /Zc:wchar_t /Zc:forScope /Zc:inline /openmp /Yu"DirectXTexP.h" /Fp"C:\USERS\SHINYA\DOCUMENTS\PICGAME\TEMP\DIRECTXTX\DX11\DEBUG\DIRECTXTEX.PCH" /Fo"C:\USERS\SHINYA\DOCUMENTS\PICGAME\TEMP\DIRECTXTX\DX11\DEBUG\\" /Fd"C:\USERS\SHINYA\DOCUMENTS\PICGAME\TEMP\DIRECTXTX\DX11\DEBUG\DIRECTXTEX.PDB" /Gd /TP /analyze-   C:\USERS\SHINYA\DOCUMENTS\LIBS\DIRECTXTEX\DIRECTXTEXD3D11.CPP
^C:\USERS\SHINYA\DOCUMENTS\LIBS\DIRECTXTEX\DIRECTXTEXDDS.CPP
/c /ZI /nologo /W4 /WX- /Od /Oi /Oy- /D _UNICODE /D UNICODE /D WIN32 /D _DEBUG /D _LIB /D _WIN7_PLATFORM_UPDATE /D _WIN32_WINNT=0x0600 /D _CRT_STDIO_ARBITRARY_WIDE_SPECIFIERS /D _UNICODE /D UNICODE /Gm- /EHsc /RTC1 /MTd /GS /arch:SSE2 /fp:fast /Zc:wchar_t /Zc:forScope /Zc:inline /openmp /Yu"DirectXTexP.h" /Fp"C:\USERS\SHINYA\DOCUMENTS\PICGAME\TEMP\DIRECTXTX\DX11\DEBUG\DIRECTXTEX.PCH" /Fo"C:\USERS\SHINYA\DOCUMENTS\PICGAME\TEMP\DIRECTXTX\DX11\DEBUG\\" /Fd"C:\USERS\SHINYA\DOCUMENTS\PICGAME\TEMP\DIRECTXTX\DX11\DEBUG\DIRECTXTEX.PDB" /Gd /TP /analyze-   C:\USERS\SHINYA\DOCUMENTS\LIBS\DIRECTXTEX\DIRECTXTEXDDS.CPP
^C:\USERS\SHINYA\DOCUMENTS\LIBS\DIRECTXTEX\DIRECTXTEXFLIPROTATE.CPP
/c /ZI /nologo /W4 /WX- /Od /Oi /Oy- /D _UNICODE /D UNICODE /D WIN32 /D _DEBUG /D _LIB /D _WIN7_PLATFORM_UPDATE /D _WIN32_WINNT=0x0600 /D _CRT_STDIO_ARBITRARY_WIDE_SPECIFIERS /D _UNICODE /D UNICODE /Gm- /EHsc /RTC1 /MTd /GS /arch:SSE2 /fp:fast /Zc:wchar_t /Zc:forScope /Zc:inline /openmp /Yu"DirectXTexP.h" /Fp"C:\USERS\SHINYA\DOCUMENTS\PICGAME\TEMP\DIRECTXTX\DX11\DEBUG\DIRECTXTEX.PCH" /Fo"C:\USERS\SHINYA\DOCUMENTS\PICGAME\TEMP\DIRECTXTX\DX11\DEBUG\\" /Fd"C:\USERS\SHINYA\DOCUMENTS\PICGAME\TEMP\DIRECTXTX\DX11\DEBUG\DIRECTXTEX.PDB" /Gd /TP /analyze-   C:\USERS\SHINYA\DOCUMENTS\LIBS\DIRECTXTEX\DIRECTXTEXFLIPROTATE.CPP
^C:\USERS\SHINYA\DOCUMENTS\LIBS\DIRECTXTEX\DIRECTXTEXIMAGE.CPP
/c /ZI /nologo /W4 /WX- /Od /Oi /Oy- /D _UNICODE /D UNICODE /D WIN32 /D _DEBUG /D _LIB /D _WIN7_PLATFORM_UPDATE /D _WIN32_WINNT=0x0600 /D _CRT_STDIO_ARBITRARY_WIDE_SPECIFIERS /D _UNICODE /D UNICODE /Gm- /EHsc /RTC1 /MTd /GS /arch:SSE2 /fp:fast /Zc:wchar_t /Zc:forScope /Zc:inline /openmp /Yu"DirectXTexP.h" /Fp"C:\USERS\SHINYA\DOCUMENTS\PICGAME\TEMP\DIRECTXTX\DX11\DEBUG\DIRECTXTEX.PCH" /Fo"C:\USERS\SHINYA\DOCUMENTS\PICGAME\TEMP\DIRECTXTX\DX11\DEBUG\\" /Fd"C:\USERS\SHINYA\DOCUMENTS\PICGAME\TEMP\DIRECTXTX\DX11\DEBUG\DIRECTXTEX.PDB" /Gd /TP /analyze-   C:\USERS\SHINYA\DOCUMENTS\LIBS\DIRECTXTEX\DIRECTXTEXIMAGE.CPP
^C:\USERS\SHINYA\DOCUMENTS\LIBS\DIRECTXTEX\DIRECTXTEXMIPMAPS.CPP
/c /ZI /nologo /W4 /WX- /Od /Oi /Oy- /D _UNICODE /D UNICODE /D WIN32 /D _DEBUG /D _LIB /D _WIN7_PLATFORM_UPDATE /D _WIN32_WINNT=0x0600 /D _CRT_STDIO_ARBITRARY_WIDE_SPECIFIERS /D _UNICODE /D UNICODE /Gm- /EHsc /RTC1 /MTd /GS /arch:SSE2 /fp:fast /Zc:wchar_t /Zc:forScope /Zc:inline /openmp /Yu"DirectXTexP.h" /Fp"C:\USERS\SHINYA\DOCUMENTS\PICGAME\TEMP\DIRECTXTX\DX11\DEBUG\DIRECTXTEX.PCH" /Fo"C:\USERS\SHINYA\DOCUMENTS\PICGAME\TEMP\DIRECTXTX\DX11\DEBUG\\" /Fd"C:\USERS\SHINYA\DOCUMENTS\PICGAME\TEMP\DIRECTXTX\DX11\DEBUG\DIRECTXTEX.PDB" /Gd /TP /analyze-   C:\USERS\SHINYA\DOCUMENTS\LIBS\DIRECTXTEX\DIRECTXTEXMIPMAPS.CPP
^C:\USERS\SHINYA\DOCUMENTS\LIBS\DIRECTXTEX\DIRECTXTEXMISC.CPP
/c /ZI /nologo /W4 /WX- /Od /Oi /Oy- /D _UNICODE /D UNICODE /D WIN32 /D _DEBUG /D _LIB /D _WIN7_PLATFORM_UPDATE /D _WIN32_WINNT=0x0600 /D _CRT_STDIO_ARBITRARY_WIDE_SPECIFIERS /D _UNICODE /D UNICODE /Gm- /EHsc /RTC1 /MTd /GS /arch:SSE2 /fp:fast /Zc:wchar_t /Zc:forScope /Zc:inline /openmp /Yu"DirectXTexP.h" /Fp"C:\USERS\SHINYA\DOCUMENTS\PICGAME\TEMP\DIRECTXTX\DX11\DEBUG\DIRECTXTEX.PCH" /Fo"C:\USERS\SHINYA\DOCUMENTS\PICGAME\TEMP\DIRECTXTX\DX11\DEBUG\\" /Fd"C:\USERS\SHINYA\DOCUMENTS\PICGAME\TEMP\DIRECTXTX\DX11\DEBUG\DIRECTXTEX.PDB" /Gd /TP /analyze-   C:\USERS\SHINYA\DOCUMENTS\LIBS\DIRECTXTEX\DIRECTXTEXMISC.CPP
^C:\USERS\SHINYA\DOCUMENTS\LIBS\DIRECTXTEX\DIRECTXTEXNORMALMAPS.CPP
/c /ZI /nologo /W4 /WX- /Od /Oi /Oy- /D _UNICODE /D UNICODE /D WIN32 /D _DEBUG /D _LIB /D _WIN7_PLATFORM_UPDATE /D _WIN32_WINNT=0x0600 /D _CRT_STDIO_ARBITRARY_WIDE_SPECIFIERS /D _UNICODE /D UNICODE /Gm- /EHsc /RTC1 /MTd /GS /arch:SSE2 /fp:fast /Zc:wchar_t /Zc:forScope /Zc:inline /openmp /Yu"DirectXTexP.h" /Fp"C:\USERS\SHINYA\DOCUMENTS\PICGAME\TEMP\DIRECTXTX\DX11\DEBUG\DIRECTXTEX.PCH" /Fo"C:\USERS\SHINYA\DOCUMENTS\PICGAME\TEMP\DIRECTXTX\DX11\DEBUG\\" /Fd"C:\USERS\SHINYA\DOCUMENTS\PICGAME\TEMP\DIRECTXTX\DX11\DEBUG\DIRECTXTEX.PDB" /Gd /TP /analyze-   C:\USERS\SHINYA\DOCUMENTS\LIBS\DIRECTXTEX\DIRECTXTEXNORMALMAPS.CPP
^C:\USERS\SHINYA\DOCUMENTS\LIBS\DIRECTXTEX\DIRECTXTEXPMALPHA.CPP
/c /ZI /nologo /W4 /WX- /Od /Oi /Oy- /D _UNICODE /D UNICODE /D WIN32 /D _DEBUG /D _LIB /D _WIN7_PLATFORM_UPDATE /D _WIN32_WINNT=0x0600 /D _CRT_STDIO_ARBITRARY_WIDE_SPECIFIERS /D _UNICODE /D UNICODE /Gm- /EHsc /RTC1 /MTd /GS /arch:SSE2 /fp:fast /Zc:wchar_t /Zc:forScope /Zc:inline /openmp /Yu"DirectXTexP.h" /Fp"C:\USERS\SHINYA\DOCUMENTS\PICGAME\TEMP\DIRECTXTX\DX11\DEBUG\DIRECTXTEX.PCH" /Fo"C:\USERS\SHINYA\DOCUMENTS\PICGAME\TEMP\DIRECTXTX\DX11\DEBUG\\" /Fd"C:\USERS\SHINYA\DOCUMENTS\PICGAME\TEMP\DIRECTXTX\DX11\DEBUG\DIRECTXTEX.PDB" /Gd /TP /analyze-   C:\USERS\SHINYA\DOCUMENTS\LIBS\DIRECTXTEX\DIRECTXTEXPMALPHA.CPP
^C:\USERS\SHINYA\DOCUMENTS\LIBS\DIRECTXTEX\DIRECTXTEXRESIZE.CPP
/c /ZI /nologo /W4 /WX- /Od /Oi /Oy- /D _UNICODE /D UNICODE /D WIN32 /D _DEBUG /D _LIB /D _WIN7_PLATFORM_UPDATE /D _WIN32_WINNT=0x0600 /D _CRT_STDIO_ARBITRARY_WIDE_SPECIFIERS /D _UNICODE /D UNICODE /Gm- /EHsc /RTC1 /MTd /GS /arch:SSE2 /fp:fast /Zc:wchar_t /Zc:forScope /Zc:inline /openmp /Yu"DirectXTexP.h" /Fp"C:\USERS\SHINYA\DOCUMENTS\PICGAME\TEMP\DIRECTXTX\DX11\DEBUG\DIRECTXTEX.PCH" /Fo"C:\USERS\SHINYA\DOCUMENTS\PICGAME\TEMP\DIRECTXTX\DX11\DEBUG\\" /Fd"C:\USERS\SHINYA\DOCUMENTS\PICGAME\TEMP\DIRECTXTX\DX11\DEBUG\DIRECTXTEX.PDB" /Gd /TP /analyze-   C:\USERS\SHINYA\DOCUMENTS\LIBS\DIRECTXTEX\DIRECTXTEXRESIZE.CPP
^C:\USERS\SHINYA\DOCUMENTS\LIBS\DIRECTXTEX\DIRECTXTEXTGA.CPP
/c /ZI /nologo /W4 /WX- /Od /Oi /Oy- /D _UNICODE /D UNICODE /D WIN32 /D _DEBUG /D _LIB /D _WIN7_PLATFORM_UPDATE /D _WIN32_WINNT=0x0600 /D _CRT_STDIO_ARBITRARY_WIDE_SPECIFIERS /D _UNICODE /D UNICODE /Gm- /EHsc /RTC1 /MTd /GS /arch:SSE2 /fp:fast /Zc:wchar_t /Zc:forScope /Zc:inline /openmp /Yu"DirectXTexP.h" /Fp"C:\USERS\SHINYA\DOCUMENTS\PICGAME\TEMP\DIRECTXTX\DX11\DEBUG\DIRECTXTEX.PCH" /Fo"C:\USERS\SHINYA\DOCUMENTS\PICGAME\TEMP\DIRECTXTX\DX11\DEBUG\\" /Fd"C:\USERS\SHINYA\DOCUMENTS\PICGAME\TEMP\DIRECTXTX\DX11\DEBUG\DIRECTXTEX.PDB" /Gd /TP /analyze-   C:\USERS\SHINYA\DOCUMENTS\LIBS\DIRECTXTEX\DIRECTXTEXTGA.CPP
^C:\USERS\SHINYA\DOCUMENTS\LIBS\DIRECTXTEX\DIRECTXTEXWIC.CPP
/c /ZI /nologo /W4 /WX- /Od /Oi /Oy- /D _UNICODE /D UNICODE /D WIN32 /D _DEBUG /D _LIB /D _WIN7_PLATFORM_UPDATE /D _WIN32_WINNT=0x0600 /D _CRT_STDIO_ARBITRARY_WIDE_SPECIFIERS /D _UNICODE /D UNICODE /Gm- /EHsc /RTC1 /MTd /GS /arch:SSE2 /fp:fast /Zc:wchar_t /Zc:forScope /Zc:inline /openmp /Yu"DirectXTexP.h" /Fp"C:\USERS\SHINYA\DOCUMENTS\PICGAME\TEMP\DIRECTXTX\DX11\DEBUG\DIRECTXTEX.PCH" /Fo"C:\USERS\SHINYA\DOCUMENTS\PICGAME\TEMP\DIRECTXTX\DX11\DEBUG\\" /Fd"C:\USERS\SHINYA\DOCUMENTS\PICGAME\TEMP\DIRECTXTX\DX11\DEBUG\DIRECTXTEX.PDB" /Gd /TP /analyze-   C:\USERS\SHINYA\DOCUMENTS\LIBS\DIRECTXTEX\DIRECTXTEXWIC.CPP
^C:\USERS\TOITA\DOCUMENTS\LIBS\DIRECTXTEX\DIRECTXTEXUTIL.CPP
/c /ZI /nologo /W4 /WX- /Od /Oi /Oy- /D _UNICODE /D UNICODE /D WIN32 /D _DEBUG /D _LIB /D _WIN7_PLATFORM_UPDATE /D _WIN32_WINNT=0x0600 /D _CRT_STDIO_ARBITRARY_WIDE_SPECIFIERS /D _UNICODE /D UNICODE /Gm- /EHsc /RTC1 /MTd /GS /arch:SSE2 /fp:fast /Zc:wchar_t /Zc:forScope /Zc:inline /openmp /Yc"DirectXTexP.h" /Fp"C:\USERS\TOITA\DOCUMENTS\PICGAME\TEMP\DIRECTXTX\DX11\DEBUG\DIRECTXTEX.PCH" /Fo"C:\USERS\TOITA\DOCUMENTS\PICGAME\TEMP\DIRECTXTX\DX11\DEBUG\\" /Fd"C:\USERS\TOITA\DOCUMENTS\PICGAME\TEMP\DIRECTXTX\DX11\DEBUG\DIRECTXTEX.PDB" /Gd /TP /analyze-   C:\USERS\TOITA\DOCUMENTS\LIBS\DIRECTXTEX\DIRECTXTEXUTIL.CPP
^C:\USERS\TOITA\DOCUMENTS\LIBS\DIRECTXTEX\BC.CPP
/c /ZI /nologo /W4 /WX- /Od /Oi /Oy- /D _UNICODE /D UNICODE /D WIN32 /D _DEBUG /D _LIB /D _WIN7_PLATFORM_UPDATE /D _WIN32_WINNT=0x0600 /D _CRT_STDIO_ARBITRARY_WIDE_SPECIFIERS /D _UNICODE /D UNICODE /Gm- /EHsc /RTC1 /MTd /GS /arch:SSE2 /fp:fast /Zc:wchar_t /Zc:forScope /Zc:inline /openmp /Yu"DirectXTexP.h" /Fp"C:\USERS\TOITA\DOCUMENTS\PICGAME\TEMP\DIRECTXTX\DX11\DEBUG\DIRECTXTEX.PCH" /Fo"C:\USERS\TOITA\DOCUMENTS\PICGAME\TEMP\DIRECTXTX\DX11\DEBUG\\" /Fd"C:\USERS\TOITA\DOCUMENTS\PICGAME\TEMP\DIRECTXTX\DX11\DEBUG\DIRECTXTEX.PDB" /Gd /TP /analyze-   C:\USERS\TOITA\DOCUMENTS\LIBS\DIRECTXTEX\BC.CPP
^C:\USERS\TOITA\DOCUMENTS\LIBS\DIRECTXTEX\BC4BC5.CPP
/c /ZI /nologo /W4 /WX- /Od /Oi /Oy- /D _UNICODE /D UNICODE /D WIN32 /D _DEBUG /D _LIB /D _WIN7_PLATFORM_UPDATE /D _WIN32_WINNT=0x0600 /D _CRT_STDIO_ARBITRARY_WIDE_SPECIFIERS /D _UNICODE /D UNICODE /Gm- /EHsc /RTC1 /MTd /GS /arch:SSE2 /fp:fast /Zc:wchar_t /Zc:forScope /Zc:inline /openmp /Yu"DirectXTexP.h" /Fp"C:\USERS\TOITA\DOCUMENTS\PICGAME\TEMP\DIRECTXTX\DX11\DEBUG\DIRECTXTEX.PCH" /Fo"C:\USERS\TOITA\DOCUMENTS\PICGAME\TEMP\DIRECTXTX\DX11\DEBUG\\" /Fd"C:\USERS\TOITA\DOCUMENTS\PICGAME\TEMP\DIRECTXTX\DX11\DEBUG\DIRECTXTEX.PDB" /Gd /TP /analyze-   C:\USERS\TOITA\DOCUMENTS\LIBS\DIRECTXTEX\BC4BC5.CPP
^C:\USERS\TOITA\DOCUMENTS\LIBS\DIRECTXTEX\BC6HBC7.CPP
/c /ZI /nologo /W4 /WX- /Od /Oi /Oy- /D _UNICODE /D UNICODE /D WIN32 /D _DEBUG /D _LIB /D _WIN7_PLATFORM_UPDATE /D _WIN32_WINNT=0x0600 /D _CRT_STDIO_ARBITRARY_WIDE_SPECIFIERS /D _UNICODE /D UNICODE /Gm- /EHsc /RTC1 /MTd /GS /arch:SSE2 /fp:fast /Zc:wchar_t /Zc:forScope /Zc:inline /openmp /Yu"DirectXTexP.h" /Fp"C:\USERS\TOITA\DOCUMENTS\PICGAME\TEMP\DIRECTXTX\DX11\DEBUG\DIRECTXTEX.PCH" /Fo"C:\USERS\TOITA\DOCUMENTS\PICGAME\TEMP\DIRECTXTX\DX11\DEBUG\\" /Fd"C:\USERS\TOITA\DOCUMENTS\PICGAME\TEMP\DIRECTXTX\DX11\DEBUG\DIRECTXTEX.PDB" /Gd /TP /analyze-   C:\USERS\TOITA\DOCUMENTS\LIBS\DIRECTXTEX\BC6HBC7.CPP
^C:\USERS\TOITA\DOCUMENTS\LIBS\DIRECTXTEX\BCDIRECTCOMPUTE.CPP
/c /ZI /nologo /W4 /WX- /Od /Oi /Oy- /D _UNICODE /D UNICODE /D WIN32 /D _DEBUG /D _LIB /D _WIN7_PLATFORM_UPDATE /D _WIN32_WINNT=0x0600 /D _CRT_STDIO_ARBITRARY_WIDE_SPECIFIERS /D _UNICODE /D UNICODE /Gm- /EHsc /RTC1 /MTd /GS /arch:SSE2 /fp:fast /Zc:wchar_t /Zc:forScope /Zc:inline /openmp /Yu"DirectXTexP.h" /Fp"C:\USERS\TOITA\DOCUMENTS\PICGAME\TEMP\DIRECTXTX\DX11\DEBUG\DIRECTXTEX.PCH" /Fo"C:\USERS\TOITA\DOCUMENTS\PICGAME\TEMP\DIRECTXTX\DX11\DEBUG\\" /Fd"C:\USERS\TOITA\DOCUMENTS\PICGAME\TEMP\DIRECTXTX\DX11\DEBUG\DIRECTXTEX.PDB" /Gd /TP /analyze-   C:\USERS\TOITA\DOCUMENTS\LIBS\DIRECTXTEX\BCDIRECTCOMPUTE.CPP
^C:\USERS\TOITA\DOCUMENTS\LIBS\DIRECTXTEX\DIRECTXTEXCOMPRESS.CPP
/c /ZI /nologo /W4 /WX- /Od /Oi /Oy- /D _UNICODE /D UNICODE /D WIN32 /D _DEBUG /D _LIB /D _WIN7_PLATFORM_UPDATE /D _WIN32_WINNT=0x0600 /D _CRT_STDIO_ARBITRARY_WIDE_SPECIFIERS /D _UNICODE /D UNICODE /Gm- /EHsc /RTC1 /MTd /GS /arch:SSE2 /fp:fast /Zc:wchar_t /Zc:forScope /Zc:inline /openmp /Yu"DirectXTexP.h" /Fp"C:\USERS\TOITA\DOCUMENTS\PICGAME\TEMP\DIRECTXTX\DX11\DEBUG\DIRECTXTEX.PCH" /Fo"C:\USERS\TOITA\DOCUMENTS\PICGAME\TEMP\DIRECTXTX\DX11\DEBUG\\" /Fd"C:\USERS\TOITA\DOCUMENTS\PICGAME\TEMP\DIRECTXTX\DX11\DEBUG\DIRECTXTEX.PDB" /Gd /TP /analyze-   C:\USERS\TOITA\DOCUMENTS\LIBS\DIRECTXTEX\DIRECTXTEXCOMPRESS.CPP
^C:\USERS\TOITA\DOCUMENTS\LIBS\DIRECTXTEX\DIRECTXTEXCOMPRESSGPU.CPP
/c /ZI /nologo /W4 /WX- /Od /Oi /Oy- /D _UNICODE /D UNICODE /D WIN32 /D _DEBUG /D _LIB /D _WIN7_PLATFORM_UPDATE /D _WIN32_WINNT=0x0600 /D _CRT_STDIO_ARBITRARY_WIDE_SPECIFIERS /D _UNICODE /D UNICODE /Gm- /EHsc /RTC1 /MTd /GS /arch:SSE2 /fp:fast /Zc:wchar_t /Zc:forScope /Zc:inline /openmp /Yu"DirectXTexP.h" /Fp"C:\USERS\TOITA\DOCUMENTS\PICGAME\TEMP\DIRECTXTX\DX11\DEBUG\DIRECTXTEX.PCH" /Fo"C:\USERS\TOITA\DOCUMENTS\PICGAME\TEMP\DIRECTXTX\DX11\DEBUG\\" /Fd"C:\USERS\TOITA\DOCUMENTS\PICGAME\TEMP\DIRECTXTX\DX11\DEBUG\DIRECTXTEX.PDB" /Gd /TP /analyze-   C:\USERS\TOITA\DOCUMENTS\LIBS\DIRECTXTEX\DIRECTXTEXCOMPRESSGPU.CPP
^C:\USERS\TOITA\DOCUMENTS\LIBS\DIRECTXTEX\DIRECTXTEXCONVERT.CPP
/c /ZI /nologo /W4 /WX- /Od /Oi /Oy- /D _UNICODE /D UNICODE /D WIN32 /D _DEBUG /D _LIB /D _WIN7_PLATFORM_UPDATE /D _WIN32_WINNT=0x0600 /D _CRT_STDIO_ARBITRARY_WIDE_SPECIFIERS /D _UNICODE /D UNICODE /Gm- /EHsc /RTC1 /MTd /GS /arch:SSE2 /fp:fast /Zc:wchar_t /Zc:forScope /Zc:inline /openmp /Yu"DirectXTexP.h" /Fp"C:\USERS\TOITA\DOCUMENTS\PICGAME\TEMP\DIRECTXTX\DX11\DEBUG\DIRECTXTEX.PCH" /Fo"C:\USERS\TOITA\DOCUMENTS\PICGAME\TEMP\DIRECTXTX\DX11\DEBUG\\" /Fd"C:\USERS\TOITA\DOCUMENTS\PICGAME\TEMP\DIRECTXTX\DX11\DEBUG\DIRECTXTEX.PDB" /Gd /TP /analyze-   C:\USERS\TOITA\DOCUMENTS\LIBS\DIRECTXTEX\DIRECTXTEXCONVERT.CPP
^C:\USERS\TOITA\DOCUMENTS\LIBS\DIRECTXTEX\DIRECTXTEXD3D11.CPP
/c /ZI /nologo /W4 /WX- /Od /Oi /Oy- /D _UNICODE /D UNICODE /D WIN32 /D _DEBUG /D _LIB /D _WIN7_PLATFORM_UPDATE /D _WIN32_WINNT=0x0600 /D _CRT_STDIO_ARBITRARY_WIDE_SPECIFIERS /D _UNICODE /D UNICODE /Gm- /EHsc /RTC1 /MTd /GS /arch:SSE2 /fp:fast /Zc:wchar_t /Zc:forScope /Zc:inline /openmp /Yu"DirectXTexP.h" /Fp"C:\USERS\TOITA\DOCUMENTS\PICGAME\TEMP\DIRECTXTX\DX11\DEBUG\DIRECTXTEX.PCH" /Fo"C:\USERS\TOITA\DOCUMENTS\PICGAME\TEMP\DIRECTXTX\DX11\DEBUG\\" /Fd"C:\USERS\TOITA\DOCUMENTS\PICGAME\TEMP\DIRECTXTX\DX11\DEBUG\DIRECTXTEX.PDB" /Gd /TP /analyze-   C:\USERS\TOITA\DOCUMENTS\LIBS\DIRECTXTEX\DIRECTXTEXD3D11.CPP
^C:\USERS\TOITA\DOCUMENTS\LIBS\DIRECTXTEX\DIRECTXTEXDDS.CPP
/c /ZI /nologo /W4 /WX- /Od /Oi /Oy- /D _UNICODE /D UNICODE /D WIN32 /D _DEBUG /D _LIB /D _WIN7_PLATFORM_UPDATE /D _WIN32_WINNT=0x0600 /D _CRT_STDIO_ARBITRARY_WIDE_SPECIFIERS /D _UNICODE /D UNICODE /Gm- /EHsc /RTC1 /MTd /GS /arch:SSE2 /fp:fast /Zc:wchar_t /Zc:forScope /Zc:inline /openmp /Yu"DirectXTexP.h" /Fp"C:\USERS\TOITA\DOCUMENTS\PICGAME\TEMP\DIRECTXTX\DX11\DEBUG\DIRECTXTEX.PCH" /Fo"C:\USERS\TOITA\DOCUMENTS\PICGAME\TEMP\DIRECTXTX\DX11\DEBUG\\" /Fd"C:\USERS\TOITA\DOCUMENTS\PICGAME\TEMP\DIRECTXTX\DX11\DEBUG\DIRECTXTEX.PDB" /Gd /TP /analyze-   C:\USERS\TOITA\DOCUMENTS\LIBS\DIRECTXTEX\DIRECTXTEXDDS.CPP
^C:\USERS\TOITA\DOCUMENTS\LIBS\DIRECTXTEX\DIRECTXTEXFLIPROTATE.CPP
/c /ZI /nologo /W4 /WX- /Od /Oi /Oy- /D _UNICODE /D UNICODE /D WIN32 /D _DEBUG /D _LIB /D _WIN7_PLATFORM_UPDATE /D _WIN32_WINNT=0x0600 /D _CRT_STDIO_ARBITRARY_WIDE_SPECIFIERS /D _UNICODE /D UNICODE /Gm- /EHsc /RTC1 /MTd /GS /arch:SSE2 /fp:fast /Zc:wchar_t /Zc:forScope /Zc:inline /openmp /Yu"DirectXTexP.h" /Fp"C:\USERS\TOITA\DOCUMENTS\PICGAME\TEMP\DIRECTXTX\DX11\DEBUG\DIRECTXTEX.PCH" /Fo"C:\USERS\TOITA\DOCUMENTS\PICGAME\TEMP\DIRECTXTX\DX11\DEBUG\\" /Fd"C:\USERS\TOITA\DOCUMENTS\PICGAME\TEMP\DIRECTXTX\DX11\DEBUG\DIRECTXTEX.PDB" /Gd /TP /analyze-   C:\USERS\TOITA\DOCUMENTS\LIBS\DIRECTXTEX\DIRECTXTEXFLIPROTATE.CPP
^C:\USERS\TOITA\DOCUMENTS\LIBS\DIRECTXTEX\DIRECTXTEXIMAGE.CPP
/c /ZI /nologo /W4 /WX- /Od /Oi /Oy- /D _UNICODE /D UNICODE /D WIN32 /D _DEBUG /D _LIB /D _WIN7_PLATFORM_UPDATE /D _WIN32_WINNT=0x0600 /D _CRT_STDIO_ARBITRARY_WIDE_SPECIFIERS /D _UNICODE /D UNICODE /Gm- /EHsc /RTC1 /MTd /GS /arch:SSE2 /fp:fast /Zc:wchar_t /Zc:forScope /Zc:inline /openmp /Yu"DirectXTexP.h" /Fp"C:\USERS\TOITA\DOCUMENTS\PICGAME\TEMP\DIRECTXTX\DX11\DEBUG\DIRECTXTEX.PCH" /Fo"C:\USERS\TOITA\DOCUMENTS\PICGAME\TEMP\DIRECTXTX\DX11\DEBUG\\" /Fd"C:\USERS\TOITA\DOCUMENTS\PICGAME\TEMP\DIRECTXTX\DX11\DEBUG\DIRECTXTEX.PDB" /Gd /TP /analyze-   C:\USERS\TOITA\DOCUMENTS\LIBS\DIRECTXTEX\DIRECTXTEXIMAGE.CPP
^C:\USERS\TOITA\DOCUMENTS\LIBS\DIRECTXTEX\DIRECTXTEXMIPMAPS.CPP
/c /ZI /nologo /W4 /WX- /Od /Oi /Oy- /D _UNICODE /D UNICODE /D WIN32 /D _DEBUG /D _LIB /D _WIN7_PLATFORM_UPDATE /D _WIN32_WINNT=0x0600 /D _CRT_STDIO_ARBITRARY_WIDE_SPECIFIERS /D _UNICODE /D UNICODE /Gm- /EHsc /RTC1 /MTd /GS /arch:SSE2 /fp:fast /Zc:wchar_t /Zc:forScope /Zc:inline /openmp /Yu"DirectXTexP.h" /Fp"C:\USERS\TOITA\DOCUMENTS\PICGAME\TEMP\DIRECTXTX\DX11\DEBUG\DIRECTXTEX.PCH" /Fo"C:\USERS\TOITA\DOCUMENTS\PICGAME\TEMP\DIRECTXTX\DX11\DEBUG\\" /Fd"C:\USERS\TOITA\DOCUMENTS\PICGAME\TEMP\DIRECTXTX\DX11\DEBUG\DIRECTXTEX.PDB" /Gd /TP /analyze-   C:\USERS\TOITA\DOCUMENTS\LIBS\DIRECTXTEX\DIRECTXTEXMIPMAPS.CPP
^C:\USERS\TOITA\DOCUMENTS\LIBS\DIRECTXTEX\DIRECTXTEXMISC.CPP
/c /ZI /nologo /W4 /WX- /Od /Oi /Oy- /D _UNICODE /D UNICODE /D WIN32 /D _DEBUG /D _LIB /D _WIN7_PLATFORM_UPDATE /D _WIN32_WINNT=0x0600 /D _CRT_STDIO_ARBITRARY_WIDE_SPECIFIERS /D _UNICODE /D UNICODE /Gm- /EHsc /RTC1 /MTd /GS /arch:SSE2 /fp:fast /Zc:wchar_t /Zc:forScope /Zc:inline /openmp /Yu"DirectXTexP.h" /Fp"C:\USERS\TOITA\DOCUMENTS\PICGAME\TEMP\DIRECTXTX\DX11\DEBUG\DIRECTXTEX.PCH" /Fo"C:\USERS\TOITA\DOCUMENTS\PICGAME\TEMP\DIRECTXTX\DX11\DEBUG\\" /Fd"C:\USERS\TOITA\DOCUMENTS\PICGAME\TEMP\DIRECTXTX\DX11\DEBUG\DIRECTXTEX.PDB" /Gd /TP /analyze-   C:\USERS\TOITA\DOCUMENTS\LIBS\DIRECTXTEX\DIRECTXTEXMISC.CPP
^C:\USERS\TOITA\DOCUMENTS\LIBS\DIRECTXTEX\DIRECTXTEXNORMALMAPS.CPP
/c /ZI /nologo /W4 /WX- /Od /Oi /Oy- /D _UNICODE /D UNICODE /D WIN32 /D _DEBUG /D _LIB /D _WIN7_PLATFORM_UPDATE /D _WIN32_WINNT=0x0600 /D _CRT_STDIO_ARBITRARY_WIDE_SPECIFIERS /D _UNICODE /D UNICODE /Gm- /EHsc /RTC1 /MTd /GS /arch:SSE2 /fp:fast /Zc:wchar_t /Zc:forScope /Zc:inline /openmp /Yu"DirectXTexP.h" /Fp"C:\USERS\TOITA\DOCUMENTS\PICGAME\TEMP\DIRECTXTX\DX11\DEBUG\DIRECTXTEX.PCH" /Fo"C:\USERS\TOITA\DOCUMENTS\PICGAME\TEMP\DIRECTXTX\DX11\DEBUG\\" /Fd"C:\USERS\TOITA\DOCUMENTS\PICGAME\TEMP\DIRECTXTX\DX11\DEBUG\DIRECTXTEX.PDB" /Gd /TP /analyze-   C:\USERS\TOITA\DOCUMENTS\LIBS\DIRECTXTEX\DIRECTXTEXNORMALMAPS.CPP
^C:\USERS\TOITA\DOCUMENTS\LIBS\DIRECTXTEX\DIRECTXTEXPMALPHA.CPP
/c /ZI /nologo /W4 /WX- /Od /Oi /Oy- /D _UNICODE /D UNICODE /D WIN32 /D _DEBUG /D _LIB /D _WIN7_PLATFORM_UPDATE /D _WIN32_WINNT=0x0600 /D _CRT_STDIO_ARBITRARY_WIDE_SPECIFIERS /D _UNICODE /D UNICODE /Gm- /EHsc /RTC1 /MTd /GS /arch:SSE2 /fp:fast /Zc:wchar_t /Zc:forScope /Zc:inline /openmp /Yu"DirectXTexP.h" /Fp"C:\USERS\TOITA\DOCUMENTS\PICGAME\TEMP\DIRECTXTX\DX11\DEBUG\DIRECTXTEX.PCH" /Fo"C:\USERS\TOITA\DOCUMENTS\PICGAME\TEMP\DIRECTXTX\DX11\DEBUG\\" /Fd"C:\USERS\TOITA\DOCUMENTS\PICGAME\TEMP\DIRECTXTX\DX11\DEBUG\DIRECTXTEX.PDB" /Gd /TP /analyze-   C:\USERS\TOITA\DOCUMENTS\LIBS\DIRECTXTEX\DIRECTXTEXPMALPHA.CPP
^C:\USERS\TOITA\DOCUMENTS\LIBS\DIRECTXTEX\DIRECTXTEXRESIZE.CPP
/c /ZI /nologo /W4 /WX- /Od /Oi /Oy- /D _UNICODE /D UNICODE /D WIN32 /D _DEBUG /D _LIB /D _WIN7_PLATFORM_UPDATE /D _WIN32_WINNT=0x0600 /D _CRT_STDIO_ARBITRARY_WIDE_SPECIFIERS /D _UNICODE /D UNICODE /Gm- /EHsc /RTC1 /MTd /GS /arch:SSE2 /fp:fast /Zc:wchar_t /Zc:forScope /Zc:inline /openmp /Yu"DirectXTexP.h" /Fp"C:\USERS\TOITA\DOCUMENTS\PICGAME\TEMP\DIRECTXTX\DX11\DEBUG\DIRECTXTEX.PCH" /Fo"C:\USERS\TOITA\DOCUMENTS\PICGAME\TEMP\DIRECTXTX\DX11\DEBUG\\" /Fd"C:\USERS\TOITA\DOCUMENTS\PICGAME\TEMP\DIRECTXTX\DX11\DEBUG\DIRECTXTEX.PDB" /Gd /TP /analyze-   C:\USERS\TOITA\DOCUMENTS\LIBS\DIRECTXTEX\DIRECTXTEXRESIZE.CPP
^C:\USERS\TOITA\DOCUMENTS\LIBS\DIRECTXTEX\DIRECTXTEXTGA.CPP
/c /ZI /nologo /W4 /WX- /Od /Oi /Oy- /D _UNICODE /D UNICODE /D WIN32 /D _DEBUG /D _LIB /D _WIN7_PLATFORM_UPDATE /D _WIN32_WINNT=0x0600 /D _CRT_STDIO_ARBITRARY_WIDE_SPECIFIERS /D _UNICODE /D UNICODE /Gm- /EHsc /RTC1 /MTd /GS /arch:SSE2 /fp:fast /Zc:wchar_t /Zc:forScope /Zc:inline /openmp /Yu"DirectXTexP.h" /Fp"C:\USERS\TOITA\DOCUMENTS\PICGAME\TEMP\DIRECTXTX\DX11\DEBUG\DIRECTXTEX.PCH" /Fo"C:\USERS\TOITA\DOCUMENTS\PICGAME\TEMP\DIRECTXTX\DX11\DEBUG\\" /Fd"C:\USERS\TOITA\DOCUMENTS\PICGAME\TEMP\DIRECTXTX\DX11\DEBUG\DIRECTXTEX.PDB" /Gd /TP /analyze-   C:\USERS\TOITA\DOCUMENTS\LIBS\DIRECTXTEX\DIRECTXTEXTGA.CPP
^C:\USERS\TOITA\DOCUMENTS\LIBS\DIRECTXTEX\DIRECTXTEXWIC.CPP
/c /ZI /nologo /W4 /WX- /Od /Oi /Oy- /D _UNICODE /D UNICODE /D WIN32 /D _DEBUG /D _LIB /D _WIN7_PLATFORM_UPDATE /D _WIN32_WINNT=0x0600 /D _CRT_STDIO_ARBITRARY_WIDE_SPECIFIERS /D _UNICODE /D UNICODE /Gm- /EHsc /RTC1 /MTd /GS /arch:SSE2 /fp:fast /Zc:wchar_t /Zc:forScope /Zc:inline /openmp /Yu"DirectXTexP.h" /Fp"C:\USERS\TOITA\DOCUMENTS\PICGAME\TEMP\DIRECTXTX\DX11\DEBUG\DIRECTXTEX.PCH" /Fo"C:\USERS\TOITA\DOCUMENTS\PICGAME\TEMP\DIRECTXTX\DX11\DEBUG\\" /Fd"C:\USERS\TOITA\DOCUMENTS\PICGAME\TEMP\DIRECTXTX\DX11\DEBUG\DIRECTXTEX.PDB" /Gd /TP /analyze-   C:\USERS\TOITA\DOCUMENTS\LIBS\DIRECTXTEX\DIRECTXTEXWIC.CPP
